// Jest Snapshot v1, https://goo.gl/fbAQLP

exports[`renders correctly 1`] = `
<View
  style={
    Object {
      "backgroundColor": "#6ba1d1",
      "flex": 2.5,
    }
  }
>
  <Text>
    Snap Carousel size: 
    m
  </Text>
  <RCTScrollView
    activeAnimationOptions={null}
    activeAnimationType="timing"
    activeSlideAlignment="center"
    activeSlideOffset={20}
    apparitionDelay={0}
    automaticallyAdjustContentInsets={false}
    autoplay={false}
    autoplayDelay={1000}
    autoplayInterval={3000}
    callbackOffsetMargin={5}
    containerCustomStyle={Object {}}
    contentContainerCustomStyle={Object {}}
    contentContainerStyle={
      Array [
        Object {
          "paddingLeft": 75,
          "paddingRight": 75,
        },
        Object {},
      ]
    }
    data={
      Array [
        Object {
          "title": "Analytics",
          "url": "https://res.cloudinary.com/bshano/image/upload/v1571410791/zurich/icon_analytics.png",
        },
        Object {
          "title": "Design",
          "url": "https://res.cloudinary.com/bshano/image/upload/v1571410789/zurich/icon_design.png",
        },
        Object {
          "title": "Technology",
          "url": "https://res.cloudinary.com/bshano/image/upload/v1571410789/zurich/icon_technology.png",
        },
        Object {
          "title": "Campaign",
          "url": "https://res.cloudinary.com/bshano/image/upload/v1571410789/zurich/icon_campaign.png",
        },
        Object {
          "title": "Strategy",
          "url": "https://res.cloudinary.com/bshano/image/upload/v1571410789/zurich/icon_strategy.png",
        },
      ]
    }
    decelerationRate="fast"
    directionalLockEnabled={true}
    disableVirtualization={false}
    enableMomentum={false}
    enableSnap={true}
    firstItem={0}
    getItem={[Function]}
    getItemCount={[Function]}
    hasParallaxImages={false}
    horizontal={true}
    inactiveSlideOpacity={0.7}
    inactiveSlideScale={0.9}
    inactiveSlideShift={0}
    initialNumToRender={7}
    invertStickyHeaders={false}
    inverted={false}
    itemWidth={200}
    keyExtractor={[Function]}
    layout="default"
    lockScrollTimeoutDuration={1000}
    lockScrollWhileSnapping={false}
    loop={false}
    loopClonesPerSide={3}
    maxToRenderPerBatch={15}
    numColumns={1}
    onContentSizeChange={[Function]}
    onEndReachedThreshold={2}
    onLayout={[Function]}
    onMomentumScrollEnd={[Function]}
    onResponderRelease={[Function]}
    onScroll={[Function]}
    onScrollBeginDrag={[Function]}
    onScrollEndDrag={[Function]}
    onStartShouldSetResponderCapture={[Function]}
    onTouchEnd={[Function]}
    onTouchStart={[Function]}
    overScrollMode="never"
    pinchGestureEnabled={false}
    removeClippedSubviews={true}
    renderItem={[Function]}
    scrollEnabled={true}
    scrollEventThrottle={1}
    scrollsToTop={false}
    shouldOptimizeUpdates={true}
    showsHorizontalScrollIndicator={false}
    showsVerticalScrollIndicator={false}
    slideStyle={Object {}}
    sliderWidth={350}
    stickyHeaderIndices={Array []}
    style={
      Object {
        "flexDirection": "row",
        "opacity": 0,
        "width": 350,
      }
    }
    swipeThreshold={20}
    updateCellsBatchingPeriod={50}
    useScrollView={false}
    vertical={false}
    viewabilityConfigCallbackPairs={Array []}
    windowSize={15}
  >
    <View>
      <View
        onLayout={[Function]}
        style={
          Array [
            Object {
              "flexDirection": "row",
            },
            null,
          ]
        }
      >
        <View
          pointerEvents="box-none"
          style={
            Object {
              "opacity": 1,
              "transform": Array [
                Object {
                  "scale": 1,
                },
              ],
              "width": 200,
            }
          }
        >
          <View
            style={
              Object {
                "alignItems": "center",
                "borderColor": "grey",
                "justifyContent": "center",
              }
            }
          >
            <View
              accessible={true}
              isTVSelectable={true}
              onResponderGrant={[Function]}
              onResponderMove={[Function]}
              onResponderRelease={[Function]}
              onResponderTerminate={[Function]}
              onResponderTerminationRequest={[Function]}
              onStartShouldSetResponder={[Function]}
              style={null}
            >
              <Image
                source={
                  Object {
                    "uri": "https://res.cloudinary.com/bshano/image/upload/v1571410791/zurich/icon_analytics.png",
                  }
                }
                style={
                  Object {
                    "height": 150,
                    "marginBottom": 20,
                    "marginTop": 20,
                    "width": 170,
                  }
                }
              />
            </View>
            <Text
              style={
                Object {
                  "alignItems": "center",
                  "color": "white",
                  "justifyContent": "center",
                }
              }
            >
               
              Analytics
               
            </Text>
          </View>
        </View>
      </View>
      <View
        onLayout={[Function]}
        style={
          Array [
            Object {
              "flexDirection": "row",
            },
            null,
          ]
        }
      >
        <View
          pointerEvents="box-none"
          style={
            Object {
              "opacity": 0.7,
              "transform": Array [
                Object {
                  "scale": 0.9,
                },
              ],
              "width": 200,
            }
          }
        >
          <View
            style={
              Object {
                "alignItems": "center",
                "borderColor": "grey",
                "justifyContent": "center",
              }
            }
          >
            <View
              accessible={true}
              isTVSelectable={true}
              onResponderGrant={[Function]}
              onResponderMove={[Function]}
              onResponderRelease={[Function]}
              onResponderTerminate={[Function]}
              onResponderTerminationRequest={[Function]}
              onStartShouldSetResponder={[Function]}
              style={null}
            >
              <Image
                source={
                  Object {
                    "uri": "https://res.cloudinary.com/bshano/image/upload/v1571410789/zurich/icon_design.png",
                  }
                }
                style={
                  Object {
                    "height": 150,
                    "marginBottom": 20,
                    "marginTop": 20,
                    "width": 170,
                  }
                }
              />
            </View>
            <Text
              style={
                Object {
                  "alignItems": "center",
                  "color": "white",
                  "justifyContent": "center",
                }
              }
            >
               
              Design
               
            </Text>
          </View>
        </View>
      </View>
      <View
        onLayout={[Function]}
        style={
          Array [
            Object {
              "flexDirection": "row",
            },
            null,
          ]
        }
      >
        <View
          pointerEvents="box-none"
          style={
            Object {
              "opacity": 0.7,
              "transform": Array [
                Object {
                  "scale": 0.9,
                },
              ],
              "width": 200,
            }
          }
        >
          <View
            style={
              Object {
                "alignItems": "center",
                "borderColor": "grey",
                "justifyContent": "center",
              }
            }
          >
            <View
              accessible={true}
              isTVSelectable={true}
              onResponderGrant={[Function]}
              onResponderMove={[Function]}
              onResponderRelease={[Function]}
              onResponderTerminate={[Function]}
              onResponderTerminationRequest={[Function]}
              onStartShouldSetResponder={[Function]}
              style={null}
            >
              <Image
                source={
                  Object {
                    "uri": "https://res.cloudinary.com/bshano/image/upload/v1571410789/zurich/icon_technology.png",
                  }
                }
                style={
                  Object {
                    "height": 150,
                    "marginBottom": 20,
                    "marginTop": 20,
                    "width": 170,
                  }
                }
              />
            </View>
            <Text
              style={
                Object {
                  "alignItems": "center",
                  "color": "white",
                  "justifyContent": "center",
                }
              }
            >
               
              Technology
               
            </Text>
          </View>
        </View>
      </View>
      <View
        onLayout={[Function]}
        style={
          Array [
            Object {
              "flexDirection": "row",
            },
            null,
          ]
        }
      >
        <View
          pointerEvents="box-none"
          style={
            Object {
              "opacity": 0.7,
              "transform": Array [
                Object {
                  "scale": 0.9,
                },
              ],
              "width": 200,
            }
          }
        >
          <View
            style={
              Object {
                "alignItems": "center",
                "borderColor": "grey",
                "justifyContent": "center",
              }
            }
          >
            <View
              accessible={true}
              isTVSelectable={true}
              onResponderGrant={[Function]}
              onResponderMove={[Function]}
              onResponderRelease={[Function]}
              onResponderTerminate={[Function]}
              onResponderTerminationRequest={[Function]}
              onStartShouldSetResponder={[Function]}
              style={null}
            >
              <Image
                source={
                  Object {
                    "uri": "https://res.cloudinary.com/bshano/image/upload/v1571410789/zurich/icon_campaign.png",
                  }
                }
                style={
                  Object {
                    "height": 150,
                    "marginBottom": 20,
                    "marginTop": 20,
                    "width": 170,
                  }
                }
              />
            </View>
            <Text
              style={
                Object {
                  "alignItems": "center",
                  "color": "white",
                  "justifyContent": "center",
                }
              }
            >
               
              Campaign
               
            </Text>
          </View>
        </View>
      </View>
      <View
        onLayout={[Function]}
        style={
          Array [
            Object {
              "flexDirection": "row",
            },
            null,
          ]
        }
      >
        <View
          pointerEvents="box-none"
          style={
            Object {
              "opacity": 0.7,
              "transform": Array [
                Object {
                  "scale": 0.9,
                },
              ],
              "width": 200,
            }
          }
        >
          <View
            style={
              Object {
                "alignItems": "center",
                "borderColor": "grey",
                "justifyContent": "center",
              }
            }
          >
            <View
              accessible={true}
              isTVSelectable={true}
              onResponderGrant={[Function]}
              onResponderMove={[Function]}
              onResponderRelease={[Function]}
              onResponderTerminate={[Function]}
              onResponderTerminationRequest={[Function]}
              onStartShouldSetResponder={[Function]}
              style={null}
            >
              <Image
                source={
                  Object {
                    "uri": "https://res.cloudinary.com/bshano/image/upload/v1571410789/zurich/icon_strategy.png",
                  }
                }
                style={
                  Object {
                    "height": 150,
                    "marginBottom": 20,
                    "marginTop": 20,
                    "width": 170,
                  }
                }
              />
            </View>
            <Text
              style={
                Object {
                  "alignItems": "center",
                  "color": "white",
                  "justifyContent": "center",
                }
              }
            >
               
              Strategy
               
            </Text>
          </View>
        </View>
      </View>
    </View>
  </RCTScrollView>
</View>
`;
